[
    {
        "id": 1,
        "todo": "Todo 1",
        "checked": true
    },
    {
        "id": 2,
        "todo": "Todo 2",
        "checked": false
    },
    {
        "id": 3,
        "todo": "Todo 3",
        "checked": true
    },
    {
        "id": 4,
        "todo": "Todo 4",
        "checked": false
    }
]